{
    "tracks": {
        "href": "https://api.spotify.com/v1/search?offset=0&limit=2&query=queen&type=track&market=CO",
        "limit": 2,
        "next": "https://api.spotify.com/v1/search?offset=2&limit=2&query=queen&type=track&market=CO",
        "offset": 0,
        "previous": null,
        "total": 194,
        "items": [
            {
                "album": {
                    "album_type": "album",
                    "artists": [
                        {
                            "external_urls": {
                                "spotify": "https://open.spotify.com/artist/1dfeR4HaWDbWqFHLkxsg1d"
                            },
                            "href": "https://api.spotify.com/v1/artists/1dfeR4HaWDbWqFHLkxsg1d",
                            "id": "1dfeR4HaWDbWqFHLkxsg1d",
                            "name": "Queen",
                            "type": "artist",
                            "uri": "spotify:artist:1dfeR4HaWDbWqFHLkxsg1d"
                        }
                    ],
                    "external_urls": {
                        "spotify": "https://open.spotify.com/album/6i6folBtxKV28WX3msQ4FE"
                    },
                    "href": "https://api.spotify.com/v1/albums/6i6folBtxKV28WX3msQ4FE",
                    "id": "6i6folBtxKV28WX3msQ4FE",
                    "images": [
                        {
                            "height": 640,
                            "width": 640,
                            "url": "https://i.scdn.co/image/ab67616d0000b273e8b066f70c206551210d902b"
                        },
                        {
                            "height": 300,
                            "width": 300,
                            "url": "https://i.scdn.co/image/ab67616d00001e02e8b066f70c206551210d902b"
                        },
                        {
                            "height": 64,
                            "width": 64,
                            "url": "https://i.scdn.co/image/ab67616d00004851e8b066f70c206551210d902b"
                        }
                    ],
                    "is_playable": true,
                    "name": "Bohemian Rhapsody (The Original Soundtrack)",
                    "release_date": "2018-10-19",
                    "release_date_precision": "day",
                    "total_tracks": 22,
                    "type": "album",
                    "uri": "spotify:album:6i6folBtxKV28WX3msQ4FE"
                },
                "artists": [
                    {
                        "external_urls": {
                            "spotify": "https://open.spotify.com/artist/1dfeR4HaWDbWqFHLkxsg1d"
                        },
                        "href": "https://api.spotify.com/v1/artists/1dfeR4HaWDbWqFHLkxsg1d",
                        "id": "1dfeR4HaWDbWqFHLkxsg1d",
                        "name": "Queen",
                        "type": "artist",
                        "uri": "spotify:artist:1dfeR4HaWDbWqFHLkxsg1d"
                    }
                ],
                "disc_number": 1,
                "duration_ms": 354947,
                "explicit": false,
                "external_ids": {
                    "isrc": "GBUM71029604"
                },
                "external_urls": {
                    "spotify": "https://open.spotify.com/track/3z8h0TU7ReDPLIbEnYhWZb"
                },
                "href": "https://api.spotify.com/v1/tracks/3z8h0TU7ReDPLIbEnYhWZb",
                "id": "3z8h0TU7ReDPLIbEnYhWZb",
                "is_local": false,
                "is_playable": true,
                "name": "Bohemian Rhapsody",
                "popularity": 77,
                "preview_url": null,
                "track_number": 7,
                "type": "track",
                "uri": "spotify:track:3z8h0TU7ReDPLIbEnYhWZb"
            },
            {
                "album": {
                    "album_type": "single",
                    "artists": [
                        {
                            "external_urls": {
                                "spotify": "https://open.spotify.com/artist/2AfmfGFbe0A0WsTYm0SDTx"
                            },
                            "href": "https://api.spotify.com/v1/artists/2AfmfGFbe0A0WsTYm0SDTx",
                            "id": "2AfmfGFbe0A0WsTYm0SDTx",
                            "name": "i-dle",
                            "type": "artist",
                            "uri": "spotify:artist:2AfmfGFbe0A0WsTYm0SDTx"
                        }
                    ],
                    "external_urls": {
                        "spotify": "https://open.spotify.com/album/1EKNNtcJL6t84IS1ALWVdt"
                    },
                    "href": "https://api.spotify.com/v1/albums/1EKNNtcJL6t84IS1ALWVdt",
                    "id": "1EKNNtcJL6t84IS1ALWVdt",
                    "images": [
                        {
                            "height": 640,
                            "width": 640,
                            "url": "https://i.scdn.co/image/ab67616d0000b27336de7dd078a0fc1de60848e3"
                        },
                        {
                            "height": 300,
                            "width": 300,
                            "url": "https://i.scdn.co/image/ab67616d00001e0236de7dd078a0fc1de60848e3"
                        },
                        {
                            "height": 64,
                            "width": 64,
                            "url": "https://i.scdn.co/image/ab67616d0000485136de7dd078a0fc1de60848e3"
                        }
                    ],
                    "is_playable": true,
                    "name": "I feel",
                    "release_date": "2023-05-15",
                    "release_date_precision": "day",
                    "total_tracks": 6,
                    "type": "album",
                    "uri": "spotify:album:1EKNNtcJL6t84IS1ALWVdt"
                },
                "artists": [
                    {
                        "external_urls": {
                            "spotify": "https://open.spotify.com/artist/2AfmfGFbe0A0WsTYm0SDTx"
                        },
                        "href": "https://api.spotify.com/v1/artists/2AfmfGFbe0A0WsTYm0SDTx",
                        "id": "2AfmfGFbe0A0WsTYm0SDTx",
                        "name": "i-dle",
                        "type": "artist",
                        "uri": "spotify:artist:2AfmfGFbe0A0WsTYm0SDTx"
                    }
                ],
                "disc_number": 1,
                "duration_ms": 161240,
                "explicit": false,
                "external_ids": {
                    "isrc": "KRA392300001"
                },
                "external_urls": {
                    "spotify": "https://open.spotify.com/track/3xtPQCHJQ3o70PeVAaZSG2"
                },
                "href": "https://api.spotify.com/v1/tracks/3xtPQCHJQ3o70PeVAaZSG2",
                "id": "3xtPQCHJQ3o70PeVAaZSG2",
                "is_local": false,
                "is_playable": true,
                "name": "Queencard",
                "popularity": 74,
                "preview_url": null,
                "track_number": 1,
                "type": "track",
                "uri": "spotify:track:3xtPQCHJQ3o70PeVAaZSG2"
            }
        ]
    },
    "artists": {
        "href": "https://api.spotify.com/v1/search?offset=0&limit=2&query=queen&type=artist&market=CO",
        "limit": 2,
        "next": "https://api.spotify.com/v1/search?offset=2&limit=2&query=queen&type=artist&market=CO",
        "offset": 0,
        "previous": null,
        "total": 101,
        "items": [
            {
                "external_urls": {
                    "spotify": "https://open.spotify.com/artist/1dfeR4HaWDbWqFHLkxsg1d"
                },
                "followers": {
                    "href": null,
                    "total": 53983380
                },
                "genres": [
                    "classic rock",
                    "rock",
                    "glam rock"
                ],
                "href": "https://api.spotify.com/v1/artists/1dfeR4HaWDbWqFHLkxsg1d",
                "id": "1dfeR4HaWDbWqFHLkxsg1d",
                "images": [
                    {
                        "url": "https://i.scdn.co/image/b040846ceba13c3e9c125d68389491094e7f2982",
                        "height": 806,
                        "width": 999
                    },
                    {
                        "url": "https://i.scdn.co/image/af2b8e57f6d7b5d43a616bd1e27ba552cd8bfd42",
                        "height": 516,
                        "width": 640
                    },
                    {
                        "url": "https://i.scdn.co/image/c06971e9ff81696699b829484e3be165f4e64368",
                        "height": 161,
                        "width": 200
                    },
                    {
                        "url": "https://i.scdn.co/image/6dd0ffd270903d1884edf9058c49f58b03db893d",
                        "height": 52,
                        "width": 64
                    }
                ],
                "name": "Queen",
                "popularity": 85,
                "type": "artist",
                "uri": "spotify:artist:1dfeR4HaWDbWqFHLkxsg1d"
            },
            {
                "external_urls": {
                    "spotify": "https://open.spotify.com/artist/4pejUc4iciQfgdX6OKulQn"
                },
                "followers": {
                    "href": null,
                    "total": 3742308
                },
                "genres": [
                    "stoner rock",
                    "alternative rock"
                ],
                "href": "https://api.spotify.com/v1/artists/4pejUc4iciQfgdX6OKulQn",
                "id": "4pejUc4iciQfgdX6OKulQn",
                "images": [
                    {
                        "url": "https://i.scdn.co/image/ab6761610000e5eb73edfbd970917913cfc647c7",
                        "height": 640,
                        "width": 640
                    },
                    {
                        "url": "https://i.scdn.co/image/ab6761610000517473edfbd970917913cfc647c7",
                        "height": 320,
                        "width": 320
                    },
                    {
                        "url": "https://i.scdn.co/image/ab6761610000f17873edfbd970917913cfc647c7",
                        "height": 160,
                        "width": 160
                    }
                ],
                "name": "Queens of the Stone Age",
                "popularity": 71,
                "type": "artist",
                "uri": "spotify:artist:4pejUc4iciQfgdX6OKulQn"
            }
        ]
    },
    "albums": {
        "href": "https://api.spotify.com/v1/search?offset=0&limit=2&query=queen&type=album&market=CO",
        "limit": 2,
        "next": "https://api.spotify.com/v1/search?offset=2&limit=2&query=queen&type=album&market=CO",
        "offset": 0,
        "previous": null,
        "total": 102,
        "items": [
            {
                "album_type": "compilation",
                "total_tracks": 17,
                "is_playable": true,
                "external_urls": {
                    "spotify": "https://open.spotify.com/album/3VWrUk4vBznMYXGMPc7dRB"
                },
                "href": "https://api.spotify.com/v1/albums/3VWrUk4vBznMYXGMPc7dRB",
                "id": "3VWrUk4vBznMYXGMPc7dRB",
                "images": [
                    {
                        "height": 640,
                        "url": "https://i.scdn.co/image/ab67616d0000b273bb19d0c22d5709c9d73c8263",
                        "width": 640
                    },
                    {
                        "height": 300,
                        "url": "https://i.scdn.co/image/ab67616d00001e02bb19d0c22d5709c9d73c8263",
                        "width": 300
                    },
                    {
                        "height": 64,
                        "url": "https://i.scdn.co/image/ab67616d00004851bb19d0c22d5709c9d73c8263",
                        "width": 64
                    }
                ],
                "name": "Greatest Hits (Remastered)",
                "release_date": "1981-10-26",
                "release_date_precision": "day",
                "type": "album",
                "uri": "spotify:album:3VWrUk4vBznMYXGMPc7dRB",
                "artists": [
                    {
                        "external_urls": {
                            "spotify": "https://open.spotify.com/artist/1dfeR4HaWDbWqFHLkxsg1d"
                        },
                        "href": "https://api.spotify.com/v1/artists/1dfeR4HaWDbWqFHLkxsg1d",
                        "id": "1dfeR4HaWDbWqFHLkxsg1d",
                        "name": "Queen",
                        "type": "artist",
                        "uri": "spotify:artist:1dfeR4HaWDbWqFHLkxsg1d"
                    }
                ]
            },
            {
                "album_type": "single",
                "total_tracks": 1,
                "is_playable": true,
                "external_urls": {
                    "spotify": "https://open.spotify.com/album/6g6RUAmiCQbW9H8nq324XK"
                },
                "href": "https://api.spotify.com/v1/albums/6g6RUAmiCQbW9H8nq324XK",
                "id": "6g6RUAmiCQbW9H8nq324XK",
                "images": [
                    {
                        "height": 640,
                        "url": "https://i.scdn.co/image/ab67616d0000b273e565e52dd6cfa6cc1ef809ee",
                        "width": 640
                    },
                    {
                        "height": 300,
                        "url": "https://i.scdn.co/image/ab67616d00001e02e565e52dd6cfa6cc1ef809ee",
                        "width": 300
                    },
                    {
                        "height": 64,
                        "url": "https://i.scdn.co/image/ab67616d00004851e565e52dd6cfa6cc1ef809ee",
                        "width": 64
                    }
                ],
                "name": "Spicy Queen",
                "release_date": "2025-05-28",
                "release_date_precision": "day",
                "type": "album",
                "uri": "spotify:album:6g6RUAmiCQbW9H8nq324XK",
                "artists": [
                    {
                        "external_urls": {
                            "spotify": "https://open.spotify.com/artist/4N2I7VsF86h59tbsvVoB1h"
                        },
                        "href": "https://api.spotify.com/v1/artists/4N2I7VsF86h59tbsvVoB1h",
                        "id": "4N2I7VsF86h59tbsvVoB1h",
                        "name": "花冷え。",
                        "type": "artist",
                        "uri": "spotify:artist:4N2I7VsF86h59tbsvVoB1h"
                    }
                ]
            }
        ]
    }
}